#user_id,movie_id,rating
71,3896198,10
85,3731562,5
86,3315342,9
91,3896198,8
91,4425200,8
110,1219827,7
110,1691916,6
110,2771200,5
110,3171832,6
110,3315342,10
110,3731562,5
110,3896198,8
110,3922818,5
110,4116284,4
110,4425200,8
110,5052448,7
110,5442430,5
133,2072233,6
133,3315342,9
133,3731562,7
133,4287320,4
133,5052448,5
133,5442430,8
145,498381,4
147,1219827,3
147,2771200,6
147,3315342,7
147,3717490,6
147,3731562,6
147,3874544,5
147,4116284,7
147,5052448,8
224,5052448,9
235,4425200,9
237,3896198,9
296,3315342,10
312,3315342,10
312,4425200,10
322,2568862,7
325,1219827,9
353,1219827,8
353,3896198,8
387,4425200,10
396,4581576,6
420,3315342,8
442,3315342,7
455,4116284,8
497,5982852,7
541,3731562,7
555,1293847,6
555,2763304,8
572,4425200,9
577,2763304,7
577,5052448,7
588,5052448,10
589,2771200,8
589,3315342,1
631,4465564,7
676,3315342,8
685,498381,5
685,1293847,4
685,2072233,6
685,3315342,8
685,3731562,7
685,3896198,7
685,4581576,6
685,4630562,6
685,5052448,6
685,5442430,7
691,1219827,1
709,4630562,7
721,3315342,8
741,3315342,10
741,3731562,8
781,3896198,7
810,5052448,9
884,4116284,6
908,4116284,1
1006,3315342,7
1006,5052448,7
1040,3315342,7
1040,4630562,8
1050,2763304,10
1050,3315342,10
1050,4630562,8
1059,1219827,8
1059,1691916,9
1059,2771200,10
1059,3315342,10
1059,3717490,6
1059,3731562,10
1059,4425200,9
1059,4630562,9
1081,2771200,5
1081,4217392,5
1081,4630562,7
1140,3315342,10
1140,4425200,8
1170,5155780,8
1172,5442430,7
1207,1219827,6
1207,4630562,1
1223,1219827,9
1230,2771200,8
1234,3896198,7
1236,2771200,6
1238,3315342,10
1238,3731562,8
1238,4630562,10
1238,5442430,8
1250,3315342,9
1258,3315342,9
1258,3731562,7
1322,3731562,8
1322,4630562,8
1327,3405236,10
1369,3731562,6
1386,3315342,9
1415,3315342,9
1415,3717490,5
1426,1691916,10
1505,2072233,6
1505,2771200,8
1505,3171832,6
1505,5052448,8
1512,1293847,3
1554,1293847,6
1554,2072233,6
1554,2582576,6
1554,3922818,6
1628,2072233,6
1628,4425200,7
1641,3315342,8
1706,2771200,10
1711,5442430,9
1712,3315342,10
1714,1219827,8
1714,1730768,8
1714,3315342,9
1714,3717490,7
1714,3731562,8
1714,4116284,8
1714,4425200,9
1714,5052448,8
1724,5052448,9
1812,3315342,9
1812,3896198,9
1945,2568862,7
1945,2763304,9
1945,3896198,8
1945,5052448,9
1961,3315342,9
1961,4425200,9
1973,3315342,8
1973,4425200,7
1988,3315342,10
1989,3315342,8
2031,5052448,7
2064,2398241,10
2067,4465564,6
2169,4465564,5
2176,3315342,10
2176,3731562,8
2176,3896198,9
2176,4425200,9
2201,3896198,8
2217,3922818,10
2235,2072233,6
2237,2771200,7
2237,3315342,6
2237,5052448,8
2246,1293847,8
2246,2072233,7
2246,2568862,7
2246,2771200,8
2246,3315342,10
2246,3717490,8
2246,3731562,6
2246,3874544,6
2246,4425200,7
2246,4630562,10
2354,1293847,4
2354,2072233,6
2354,4630562,7
2370,4116284,5
2370,5052448,8
2396,1293847,7
2421,1293847,6
2421,2568862,7
2421,3405236,6
2421,4217392,2
2421,4630562,9
2422,3315342,9
2422,4425200,9
2448,1219827,8
2448,4116284,8
2448,5607714,8
2454,3315342,8
2454,3896198,9
2454,4630562,9
2454,5052448,8
2459,1691916,7
2467,3315342,10
2467,4425200,7
2516,493405,10
2516,3315342,10
2516,3401882,10
2516,3717490,10
2516,3731562,10
2516,4630562,10
2516,5442430,10
2517,3315342,9
2532,3315342,8
2532,4630562,7
2532,5052448,7
2532,5442430,7
2549,3315342,7
2549,3717490,7
2570,1691916,6
2570,3401882,4
2570,3731562,2
2570,4116284,5
2570,4425200,5
2570,4465564,2
2570,4581576,1
2570,5442430,9
2581,4581576,1
2586,3315342,6
2586,4425200,7
2586,4465564,4
2591,2582576,7
2596,3315342,10
2604,3315342,9
2614,4630562,8
2646,1219827,4
2646,2771200,7
2646,3315342,8
2646,3731562,8
2646,5052448,8
2655,2771200,9
2658,2771200,7
2658,4630562,7
2669,3315342,10
2680,5155780,1
2701,2771200,7
2761,3315342,8
2783,5442430,5
2806,3717490,1
2812,1293847,8
2812,4287320,7
2815,493405,6
2815,3315342,8
2825,5442430,5
2837,3315342,10
2838,498381,7
2847,5442430,8
2861,4630562,7
2880,3315342,9
2880,5052448,9
2897,3315342,8
2897,4116284,7
2897,4425200,7
2932,1219827,7
2957,1219827,6
2957,3315342,10
2957,3896198,10
2976,4630562,9
3026,2771200,10
3026,5460276,7
3033,4465564,3
3059,498381,6
3059,4630562,7
3074,3171832,6
3074,3874544,6
3111,2568862,6
3138,3315342,8
3138,4630562,6
3165,5052448,9
3166,3717490,10
3179,3171832,5
3185,3731562,7
3185,3896198,10
3193,4425200,1
3195,3315342,10
3200,2763304,7
3200,3315342,7
3207,1219827,9
3207,3896198,8
3207,4425200,8
3228,1219827,8
3251,1219827,8
3307,5052448,6
3324,3315342,8
3324,3874544,3
3324,4425200,5
3324,4630562,4
3324,5052448,3
3324,5442430,8
3349,3405236,9
3352,3717490,7
3382,498381,3
3382,1219827,8
3382,1753383,7
3382,3315342,10
3400,3896198,8
3400,4425200,8
3409,3315342,8
3409,3731562,6
3440,3315342,10
3440,4425200,9
3459,493405,7
3459,1219827,6
3459,2763304,8
3459,2771200,8
3459,3315342,9
3459,3731562,7
3459,3896198,9
3459,4425200,8
3459,4630562,7
3459,5442430,7
3465,5460276,4
3483,3315342,6
3483,4425200,6
3516,3315342,8
3516,5052448,8
3528,1219827,7
3528,3731562,7
3528,4116284,8
3547,4425200,9
3555,1293847,2
3555,2771200,6
3555,4425200,8
3555,4630562,8
3573,3315342,8
3573,4425200,3
3605,3315342,1
3611,3315342,10
3617,3315342,9
3649,5052448,8
3651,4116284,7
3656,1753383,7
3656,3731562,8
3662,3731562,5
3738,3731562,8
3738,4425200,9
3748,3315342,8
3761,3315342,9
3767,3315342,9
3774,3315342,7
3784,3315342,9
3800,2568862,7
3800,2771200,7
3800,3315342,8
3800,3717490,5
3800,3731562,7
3800,3874544,7
3800,4116284,8
3800,4425200,5
3800,4630562,5
3800,5052448,8
3800,5442430,6
3801,3171832,8
3801,3315342,9
3801,3896198,10
3803,3315342,10
3803,5052448,9
3847,2771200,9
3869,1293847,10
3869,2771200,8
3869,3171832,7
3869,3315342,10
3869,3731562,8
3869,3896198,10
3869,4425200,10
3869,4630562,9
3870,3315342,9
3908,2771200,5
3908,3171832,7
3908,5442430,9
3927,2771200,10
3936,3315342,7
3936,4630562,6
3973,3315342,10
3973,3731562,6
4012,5052448,7
4033,3315342,7
4113,2771200,10
4116,1293847,6
4118,2771200,8
4118,3731562,7
4119,2771200,8
4119,3315342,8
4158,2072233,1
4158,3315342,8
4158,3401882,5
4158,4425200,8
4158,5052448,7
4166,3315342,9
4170,2771200,8
4195,3315342,6
4197,2763304,7
4197,3315342,9
4209,5052448,10
4243,1219827,8
4243,3315342,9
4267,2072233,3
4267,3315342,8
4267,3731562,6
4267,5155780,5
4273,2763304,9
4276,1219827,8
4276,3315342,9
4276,3731562,7
4276,3896198,6
4276,3922818,7
4276,4425200,8
4276,5442430,5
4301,5052448,9
4301,5442430,8
4329,2771200,8
4365,5052448,10
4425,2771200,10
4428,2763304,8
4428,3315342,5
4428,4425200,7
4428,4465564,3
4428,5607714,9
4455,1293847,5
4459,4116284,5
4459,5442430,5
4486,5460276,3
4524,3462710,7
4524,4581576,8
4524,5155780,7
4540,3315342,7
4540,4425200,7
4540,5442430,8
4585,3171832,9
4589,2771200,7
4589,3315342,8
4589,3731562,5
4589,3896198,7
4589,4116284,6
4589,4425200,8
4589,4630562,6
4589,5052448,7
4623,498381,2
4623,1219827,5
4623,1691916,7
4623,2771200,8
4623,3315342,8
4623,3401882,6
4623,3717490,6
4623,3731562,3
4623,4425200,6
4623,5052448,9
4623,5442430,5
4631,5052448,1
4735,5442430,8
4739,3315342,8
4739,3874544,6
4739,4465564,6
4769,5442430,7
4777,4630562,6
4798,3315342,7
4813,3171832,6
4813,3315342,9
4813,5710514,7
4824,498381,7
4824,2763304,8
4824,5052448,9
4867,4630562,7
4874,4465564,8
4909,2771200,9
4909,3874544,7
4941,3315342,9
4942,1219827,5
4942,2771200,6
4942,3731562,6
4942,4425200,7
4942,4630562,7
4949,4849438,10
4953,3315342,8
4972,4630562,8
4977,2568862,7
4977,3315342,6
4977,4465564,7
4977,5442430,6
4999,1293847,6
4999,3315342,9
4999,3731562,5
4999,4116284,8
4999,4287320,6
4999,4425200,8
5001,3315342,9
5041,4630562,8
5047,3315342,9
5047,3731562,8
5047,5052448,8
5091,5442430,9
5163,1293847,6
5172,4425200,10
5201,3171832,8
5219,5052448,10
5223,3315342,9
5223,4630562,8
5224,3171832,7
5270,3896198,9
5312,5052448,8
5332,3315342,8
5398,3315342,9
5398,5442430,7
5409,498381,6
5409,2771200,7
5409,4030600,6
5409,4287320,5
5409,5052448,8
5409,5442430,5
5487,1753383,6
5487,2771200,6
5526,2771200,7
5526,3896198,8
5526,4465564,3
5526,4630562,8
5612,4630562,8
5631,5052448,7
5644,4425200,8
5674,2763304,7
5674,3315342,7
5674,3731562,7
5674,3896198,8
5674,4425200,6
5682,3896198,5
5707,1293847,4
5707,3315342,8
5707,3731562,6
5712,1293847,5
5712,2771200,7
5712,3731562,9
5712,3896198,10
5712,4630562,4
5774,2771200,8
5794,3731562,7
5794,4581576,7
5794,4630562,7
5794,5052448,9
5794,5710514,7
5820,4465564,10
5839,3315342,10
5839,3896198,10
5839,4116284,9
5860,3717490,4
5880,3315342,9
5885,3315342,10
5894,2072233,7
5908,4030600,6
5922,4425200,9
5939,4465564,5
5973,1293847,2
5973,2072233,5
5973,2771200,8
5973,5052448,9
5977,3896198,8
5977,4425200,9
6026,2763304,8
6027,4425200,8
6027,5052448,8
6030,3315342,9
6030,4116284,8
6030,4630562,7
6035,5052448,5
6035,5442430,8
6076,3315342,7
6080,3315342,9
6080,4425200,8
6080,4630562,7
6086,3315342,6
6092,498381,5
6116,3731562,7
6116,4630562,7
6167,3731562,6
6189,2771200,7
6270,4581576,8
6319,4630562,8
6441,3731562,8
6454,498381,5
6454,2398241,6
6454,2771200,7
6454,3315342,9
6454,3401882,6
6454,3717490,6
6454,3731562,7
6454,4030600,5
6454,4116284,9
6454,5052448,8
6454,5442430,7
6473,5052448,9
6478,2771200,10
6500,3315342,9
6500,3717490,3
6500,3874544,7
6500,4425200,4
6500,4630562,7
6500,5052448,7
6500,5442430,10
6503,4287320,4
6514,2072233,7
6514,3315342,10
6529,3731562,8
6529,4116284,9
6650,2771200,8
6688,3315342,9
6737,5052448,8
6783,1219827,10
6815,2771200,7
6815,3315342,8
6815,5442430,8
6818,3315342,9
6818,3731562,10
6818,5710514,4
6865,1293847,5
6865,4465564,4
6867,3315342,7
6881,1219827,7
6915,3874544,8
6917,2771200,9
6917,3731562,7
6917,4425200,8
6952,3717490,7
6954,5982852,10
6963,4465564,8
6997,3401882,7
6998,4425200,8
7015,2771200,10
7057,3315342,8
7062,4630562,10
7083,498381,5
7083,3405236,8
7083,4630562,9
7083,5052448,5
7091,5052448,10
7148,2763304,8
7148,2771200,7
7148,3315342,10
7171,3315342,9
7172,4287320,8
7189,3315342,9
7196,1219827,8
7196,3315342,5
7196,3731562,3
7199,3315342,10
7199,3717490,9
7205,3731562,10
7220,493405,6
7220,5052448,6
7324,4425200,8
7348,1293847,6
7353,2771200,7
7354,3731562,5
7354,4630562,4
7354,5052448,7
7365,3462710,7
7365,3731562,10
7365,4287320,7
7371,3315342,9
7371,4287320,6
7379,3315342,10
7382,3731562,7
7382,4425200,7
7403,4116284,9
7403,4630562,8
7409,3401882,5
7409,4425200,3
7453,4630562,5
7468,3315342,8
7468,4287320,7
7500,1219827,5
7500,2771200,10
7500,5052448,7
7528,3315342,8
7559,3315342,6
7559,3731562,7
7572,4425200,10
7575,5052448,8
7580,3315342,10
7639,3731562,7
7639,4425200,6
7649,2771200,6
7649,3315342,6
7649,4425200,8
7649,4630562,7
7666,1293847,7
7666,1753383,6
7666,2771200,9
7712,2763304,7
7712,3315342,10
7712,3731562,5
7712,4425200,7
7712,5052448,8
7753,5710514,8
7789,1753383,6
7789,3315342,10
7789,3896198,8
7789,4116284,8
7789,4465564,3
7857,3896198,9
7864,498381,5
7864,3731562,8
7864,3896198,8
7899,2771200,10
7899,3315342,10
7899,3717490,10
7899,3731562,10
7907,4630562,7
7911,3731562,10
7911,3874544,9
7911,3896198,10
7911,4630562,9
7911,5442430,9
7912,3896198,10
7923,5052448,8
7946,2771200,5
7951,4630562,10
7958,4425200,9
7976,2771200,4
7993,3315342,5
7993,3731562,7
7993,4630562,7
7998,3315342,10
7998,3896198,8
7998,4425200,7
7998,4630562,7
8013,2582576,5
8013,3896198,9
8013,4030600,1
8024,1219827,9
8040,3315342,9
8040,3731562,2
8040,3896198,7
8059,1219827,8
8059,1293847,8
8059,2568862,9
8059,3315342,9
8059,4630562,8
8090,4425200,7
8141,2398241,4
8141,2771200,6
8141,3315342,8
8141,3731562,6
8141,4630562,8
8141,5052448,8
8141,5442430,7
8159,3731562,7
8204,3315342,7
8227,3315342,10
8303,3405236,10
8322,5052448,9
8363,2771200,8
8363,4116284,8
8363,4425200,8
8363,5052448,8
8382,3315342,10
8382,3731562,7
8382,4630562,5
8382,5052448,8
8396,4630562,8
8418,4630562,10
8452,4425200,8
8487,1219827,5
8487,2398241,7
8487,2568862,6
8487,2771200,7
8527,3315342,8
8527,3731562,6
8527,5442430,7
8527,5710514,6
8619,493405,7
8619,1219827,8
8619,2763304,8
8619,3315342,9
8619,3731562,7
8619,3896198,9
8619,4425200,8
8619,4630562,7
8619,5052448,7
8619,5442430,7
8627,3405236,5
8627,5982852,5
8692,4630562,8
8718,5052448,9
8771,493405,7
8771,3315342,10
8774,5052448,6
8777,2771200,8
8795,5052448,8
8797,2771200,10
8810,3315342,8
8812,3315342,10
8817,2771200,7
8817,4630562,7
8834,4287320,7
8834,5442430,8
8864,1219827,9
8864,3171832,7
8864,3896198,9
8871,3315342,9
8973,3315342,10
9018,2568862,6
9018,4630562,6
9059,4425200,10
9064,4630562,5
9071,493405,5
9071,3315342,8
9071,3731562,7
9071,4116284,7
9071,5052448,8
9071,5442430,5
9072,5052448,8
9093,3731562,8
9106,2771200,9
9106,3731562,8
9214,1219827,7
9214,3731562,6
9251,3896198,7
9251,5442430,7
9268,1293847,7
9277,2568862,6
9277,3315342,9
9277,3405236,9
9277,3731562,8
9298,2771200,7
9298,3896198,8
9298,5052448,8
9314,2771200,8
9314,3315342,5
9322,2763304,7
9333,1293847,6
9333,3315342,8
9333,4630562,8
9364,3315342,9
9409,3315342,10
9422,1293847,6
9422,3315342,5
9422,3731562,5
9424,3171832,2
9454,3731562,7
9454,4425200,8
9454,5442430,8
9483,3731562,7
9512,4116284,7
9512,5052448,8
9514,3315342,8
9536,1293847,6
9536,2582576,5
9536,4581576,6
9536,5710514,8
9539,3401882,6
9547,3717490,7
9582,3315342,7
9582,3731562,3
9614,1219827,9
9614,2763304,10
9614,2771200,2
9614,3315342,10
9614,3731562,9
9614,3896198,10
9614,4425200,9
9614,4630562,8
9614,5442430,9
9629,2771200,5
9687,5052448,1
9789,1753383,7
9789,2763304,8
9789,2771200,8
9789,3315342,9
9789,3401882,6
9789,3731562,6
9789,4116284,8
9789,4425200,9
9789,4465564,5
9789,4630562,7
9789,5052448,9
9824,2771200,8
9824,3717490,5
9824,3874544,9
9824,3896198,9
9824,4630562,8
9945,3315342,10
9971,2771200,6
9971,3315342,6
9971,4425200,6
9971,5442430,6
10033,3315342,9
10033,3731562,7
10033,4116284,5
10033,4630562,5
10042,3315342,10
10050,3315342,9
10058,3731562,7
10067,5052448,8
10073,4630562,10
10083,4116284,10
10090,2771200,7
10109,3315342,10
10132,4425200,9
10141,2771200,9
10141,3315342,9
10141,4465564,5
10146,1219827,8
10175,2771200,8
10175,4116284,9
10183,3171832,8
10186,3315342,6
10186,3731562,5
10238,3315342,9
10246,4425200,9
10276,3315342,9
10300,3315342,7
10319,2771200,8
10322,2398241,5
10322,2771200,8
10322,3717490,4
10322,4630562,4
10337,3896198,8
10337,4425200,9
10378,3731562,9
10380,5982852,10
10398,2771200,10
10413,1219827,8
10413,3315342,10
10427,2072233,6
10427,3315342,8
10427,4217392,1
10427,5442430,8
10442,5052448,10
10447,2072233,7
10447,3315342,8
10447,3405236,5
10447,3731562,6
10447,4217392,2
10447,5460276,8
10504,3315342,8
10526,5052448,9
10544,5052448,5
10550,5982852,7
10658,4630562,8
10660,3315342,10
10660,4217392,5
10660,4581576,2
10660,4630562,8
10666,2771200,10
10666,3717490,10
10682,2771200,7
10682,3315342,10
10682,5052448,8
10698,4425200,10
10698,5052448,10
10747,3315342,10
10747,4116284,8
10788,4425200,6
10788,4465564,5
10792,3315342,9
10800,2771200,9
10800,3315342,10
10800,3731562,9
10860,3896198,8
10863,1293847,4
10863,3731562,8
10863,4630562,5
10863,5052448,9
10863,5442430,5
10895,3717490,9
10895,4116284,10
10969,4425200,9
10969,4630562,8
10982,1219827,8
10982,2763304,5
11000,4425200,10
11031,3315342,8
11031,5052448,8
11069,3315342,8
11087,4630562,7
11119,2771200,10
11140,3315342,5
11140,4425200,8
11159,4116284,8
11159,4630562,6
11159,5052448,8
11241,5442430,9
11242,1219827,4
11242,2771200,3
11242,3315342,7
11242,4287320,3
11242,4425200,7
11242,4630562,5
11242,5442430,5
11253,3896198,8
11262,3315342,8
11304,2072233,8
11304,4217392,8
11309,2771200,10
11309,4465564,6
11340,3731562,10
11372,3731562,6
11416,3731562,10
11416,5982852,10
11459,3171832,6
11469,3731562,7
11487,2771200,9
11487,5442430,8
11496,498381,5
11586,2763304,1
11587,4425200,3
11588,4116284,7
11597,3315342,10
11612,2763304,8
11612,3315342,8
11612,4425200,7
11612,5442430,6
11643,3315342,8
11643,5442430,7
11666,2771200,8
11683,1219827,5
11683,4465564,6
11683,4630562,7
11684,2072233,10
11699,5052448,5
11703,1753383,6
11739,4630562,7
11742,3315342,8
11742,3896198,8
11767,3401882,1
11821,3315342,7
11821,4630562,7
11821,5052448,6
11854,1293847,3
11911,498381,5
11929,3896198,6
11929,5442430,8
11953,3315342,10
11993,4630562,7
12019,2582576,10
12042,3315342,9
12051,3315342,9
12070,1293847,4
12116,1219827,7
12116,2771200,7
12116,3731562,7
12116,4630562,6
12116,5052448,8
12116,5442430,6
12136,1293847,4
12136,3731562,7
12136,5052448,7
12149,1293847,5
12149,2072233,7
12149,3731562,9
12149,4630562,8
12193,3315342,8
12251,498381,9
12251,3315342,9
12268,4425200,9
12322,3731562,8
12325,498381,6
12325,1293847,5
12325,3315342,8
12325,4217392,4
12325,4425200,7
12338,4630562,8
12355,3731562,7
12355,4287320,10
12355,4425200,7
12361,1293847,6
12361,2771200,6
12361,3315342,7
12361,4425200,7
12401,3171832,5
12401,3315342,8
12401,3405236,7
12401,3717490,5
12401,3731562,6
12401,3874544,7
12401,4116284,7
12401,4425200,7
12401,4630562,7
12401,5442430,9
12407,2771200,8
12408,2568862,6
12422,3315342,7
12508,2771200,5
12508,5460276,9
12517,3315342,7
12517,3731562,6
12542,1219827,5
12542,2771200,9
12542,3315342,9
12542,3896198,7
12542,4116284,8
12570,3315342,9
12586,3896198,10
12586,4425200,10
12624,3315342,10
12655,1219827,6
12655,2763304,7
12655,3315342,7
12655,3731562,6
12655,5710514,7
12666,1219827,8
12679,5052448,8
12680,5052448,7
12716,3315342,9
12716,5052448,8
12741,2771200,7
12760,3315342,9
12760,4116284,8
12790,3315342,7
12790,4630562,5
12791,3315342,9
12844,5052448,10
12846,498381,2
12846,1293847,8
12846,2072233,7
12846,2568862,5
12846,2771200,7
12846,3315342,10
12846,3731562,8
12846,3874544,9
12846,5442430,7
12847,2763304,9
12856,1293847,10
12857,1293847,7
12866,4630562,8
12872,2763304,8
12872,3315342,8
12872,3731562,7
12872,4116284,8
12872,4425200,7
12889,3315342,10
12983,2763304,7
12983,3315342,8
12991,2398241,5
12991,3315342,5
12991,3896198,9
12991,4116284,8
12991,4425200,7
13003,4116284,7
13013,2771200,8
13028,2763304,7
13037,1293847,4
13039,2398241,5
13039,2568862,6
13039,3315342,9
13039,3405236,7
13039,3717490,8
13039,3731562,6
13039,3874544,7
13039,4425200,7
13039,5442430,6
13078,3405236,8
13078,4425200,8
13078,4630562,7
13078,5052448,8
13105,1293847,8
13105,4581576,5
13127,1219827,6
13127,5442430,7
13129,1219827,6
13129,5442430,8
13130,3731562,9
13142,4581576,5
13215,498381,4
13215,3731562,4
13215,4425200,9
13215,5052448,7
13226,3315342,9
13270,5442430,8
13293,4116284,9
13296,2763304,7
13296,3315342,9
13296,4116284,6
13357,1753383,1
13365,1219827,5
13365,3731562,6
13389,3171832,9
13447,4630562,8
13484,3315342,10
13519,1293847,3
13523,2568862,7
13523,3315342,7
13523,3731562,8
13523,4116284,7
13523,4630562,8
13535,3315342,10
13584,3874544,7
13587,2763304,8
13591,2568862,6
13591,4630562,7
13594,2771200,6
13594,3315342,8
13594,3896198,7
13594,4116284,9
13625,5052448,10
13650,3315342,9
13662,3171832,5
13662,4217392,6
13687,3731562,9
13704,2771200,7
13712,1219827,8
13712,3315342,8
13712,3731562,7
13712,3874544,8
13737,3731562,8
13737,5052448,8
13737,5460276,8
13787,3315342,9
13787,3896198,8
13793,3315342,8
13900,5442430,6
13902,4425200,10
13927,498381,2
13934,5442430,8
13990,3315342,9
13996,3315342,6
14027,1730768,6
14027,3315342,6
14039,1293847,2
14040,4630562,8
14045,3315342,10
14047,1219827,6
14047,3315342,6
14047,5442430,7
14063,3731562,6
14067,1219827,7
14067,5607714,9
14077,4287320,7
14110,1293847,4
14110,4217392,4
14142,5052448,7
14152,1219827,6
14152,1753383,7
14152,3315342,9
14152,4630562,9
14221,3315342,9
14221,3717490,7
14221,4425200,9
14221,5052448,8
14222,3731562,7
14225,3315342,7
14225,3731562,5
14225,5052448,8
14236,498381,2
14272,4116284,7
14306,2771200,7
14306,3401882,5
14306,4425200,7
14317,498381,1
14317,3315342,9
14317,5052448,8
14326,5052448,1
14382,3717490,8
14392,1293847,2
14392,3315342,10
14392,4425200,7
14392,5052448,5
14404,2771200,10
14404,3717490,7
14425,5442430,7
14434,3896198,10
14434,4425200,10
14454,498381,6
14476,3315342,9
14476,4630562,7
14502,2582576,6
14502,2771200,5
14502,3315342,8
14502,3731562,5
14502,3896198,6
14502,3922818,4
14502,4030600,4
14502,4465564,4
14502,5052448,6
14502,5442430,7
14548,2771200,8
14548,3315342,9
14548,3731562,7
14548,3896198,9
14548,4630562,8
14570,2771200,7
14570,3315342,8
14570,3874544,7
14570,4116284,7
14588,1293847,1
14588,2072233,4
14588,3315342,9
14588,4630562,8
14588,5442430,8
14604,2771200,8
14604,3731562,7
14622,498381,6
14622,3315342,8
14622,3731562,8
14625,3315342,10
14639,1219827,7
14639,2763304,7
14639,3315342,8
14649,2763304,8
14649,3315342,8
14649,3717490,7
14649,3731562,7
14649,3896198,8
14649,4425200,8
14658,3171832,8
14677,3731562,7
14690,2763304,8
14704,5052448,9
14719,2771200,10
14720,3315342,10
14741,4116284,8
14744,3315342,9
14785,5052448,10
14801,3315342,7
14801,4425200,1
14804,4465564,4
14809,2771200,6
14809,3315342,3
14809,3731562,7
14809,4630562,3
14824,5052448,9
14825,1691916,2
14825,2582576,4
14825,3315342,9
14825,4465564,4
14825,4630562,8
14825,5052448,8
14885,3315342,10
14885,4116284,10
14885,5052448,10
14934,3315342,10
14935,3315342,8
14935,3731562,7
14935,4630562,7
14951,1219827,6
14951,1293847,5
14951,2771200,6
14951,3315342,7
14951,3717490,6
14951,3731562,7
14951,4425200,7
14951,4630562,7
14951,5442430,7
14962,4217392,4
14962,5052448,7
14990,3315342,8
14990,3731562,7
15069,3731562,6
15074,1691916,6
15074,3874544,8
15074,4465564,4
15081,3315342,10
15091,3874544,7
15097,3315342,7
15097,3731562,6
15115,4425200,6
15156,3315342,8
15156,3896198,8
15159,3896198,8
15167,4425200,9
15167,5442430,8
15236,4425200,9
15258,4287320,10
15269,4630562,8
15278,3315342,10
15278,3731562,7
15278,4630562,8
15288,5460276,9
15297,3315342,10
15297,3731562,8
15297,4630562,7
15297,5442430,7
15340,1293847,2
15384,2771200,7
15384,3731562,8
15384,3874544,7
15404,4425200,6
15422,4465564,10
15425,3315342,9
15425,3731562,6
15425,4630562,6
15448,3896198,9
15456,3717490,8
15456,5442430,9
15463,4630562,9
15465,3315342,8
15465,4425200,7
15465,4630562,8
15465,5442430,6
15475,2072233,5
15484,1219827,8
15484,2763304,9
15484,2771200,7
15484,3315342,10
15484,3731562,8
15484,3874544,6
15484,4425200,9
15484,5052448,10
15503,1219827,5
15503,2568862,7
15503,3315342,8
15503,3731562,5
15503,5052448,8
15533,5155780,8
15637,3171832,7
15662,5710514,7
15728,498381,3
15787,3315342,8
15798,2568862,6
15798,2771200,6
15798,4630562,4
15808,3315342,7
15808,3717490,5
15808,3731562,8
15811,3315342,10
15811,3401882,7
15811,4630562,6
15818,4116284,8
15822,3315342,10
15823,2771200,9
15860,3731562,9
15860,5442430,8
15864,2763304,8
15864,3315342,10
15864,3896198,9
15864,4630562,8
15866,1219827,5
15879,3315342,9
15914,3171832,8
15916,4630562,8
15939,2568862,8
15939,3315342,10
15939,3717490,7
15939,3731562,8
15954,3731562,10
15991,498381,5
15991,2771200,10
15991,4465564,8
15999,1293847,8
15999,3731562,8
16027,1219827,7
16033,3315342,8
16033,3731562,6
16033,5052448,7
16035,2771200,7
16035,3731562,8
16035,4116284,8
16069,4425200,5
16070,3405236,7
16074,4465564,2
16090,5052448,8
16129,5052448,8
16151,3315342,7
16151,3401882,5
16151,3717490,5
16151,3896198,7
16151,4630562,7
16152,3874544,10
16152,4630562,6
16161,1219827,5
16161,3315342,7
16161,3717490,5
16161,3731562,7
16161,4425200,7
16172,1293847,4
16182,1219827,5
16208,2568862,9
16208,3731562,7
16208,5052448,8
16226,4425200,7
16274,1219827,7
16274,2771200,7
16274,5052448,8
16346,3731562,6
16358,3315342,10
16378,5710514,6
16388,3315342,9
16388,3731562,8
16430,2771200,7
16430,5052448,8
16432,2763304,8
16432,3731562,6
16463,2771200,9
16463,4849438,10
16476,5155780,6
16494,1293847,5
16494,2771200,7
16494,3315342,6
16506,2763304,8
16509,2763304,9
16509,3315342,9
16509,4116284,9
16509,4630562,3
16522,3315342,10
16522,3731562,7
16643,1219827,6
16643,3315342,7
16643,4630562,6
16672,1293847,6
16672,3315342,8
16672,3896198,9
16672,4425200,8
16680,3405236,7
16686,4425200,9
16686,4630562,8
16686,5052448,10
16698,2072233,3
16698,2582576,4
16698,2771200,5
16698,5442430,5
16749,2763304,10
16796,3315342,8
16796,5052448,8
16823,3315342,9
16861,3731562,6
16861,4465564,5
16874,1219827,6
16874,3315342,8
16882,4630562,8
16906,498381,8
16943,498381,4
16943,3315342,10
16943,3731562,7
16943,4116284,9
16943,4425200,10
16943,4630562,10
16943,5052448,6
16957,3315342,9
16957,4116284,8
16976,5460276,3
17002,3731562,9
17009,3315342,10
17014,3315342,10
17014,4425200,9
17014,4630562,8
17014,4849438,10
17037,2771200,8
17045,2771200,10
17045,4425200,9
17045,5052448,5
17074,3315342,8
17105,2568862,7
17105,5052448,7
17105,5442430,8
17124,3315342,9
17128,4630562,10
17130,1293847,10
17130,3171832,9
17149,4425200,8
17154,4581576,3
17165,498381,5
17165,2398241,8
17165,3462710,7
17165,4581576,8
17165,5052448,9
17165,5155780,7
17183,1219827,8
17183,2771200,7
17183,3874544,7
17183,4425200,8
17183,4630562,7
17183,5052448,8
17185,3315342,10
17185,3731562,7
17185,4116284,8
17185,4425200,10
17185,5052448,9
17238,2771200,5
17238,3315342,8
17238,3896198,8
17238,5155780,5
17256,2771200,8
17283,2771200,6
17283,5052448,10
17296,1219827,7
17296,3315342,8
17296,3731562,7
17296,3874544,6
17296,3896198,9
17296,4630562,6
17302,3315342,7
17306,5442430,5
17315,2771200,10
17328,2771200,10
17349,3315342,10
17357,1293847,3
17357,3731562,4
17501,3315342,9
17501,5442430,5
17519,4465564,10
17540,3315342,8
17540,4425200,7
17540,4465564,6
17584,498381,4
17584,1219827,6
17584,2582576,7
17584,3401882,6
17584,3731562,7
17584,5052448,8
17584,5442430,7
17610,2771200,9
17625,3315342,8
17646,498381,3
17646,3896198,10
17688,3315342,8
17692,5442430,1
17696,1219827,6
17696,3315342,7
17696,4116284,5
17696,4425200,8
17754,3315342,8
17754,3401882,6
17754,3731562,8
17754,3874544,7
17754,4116284,7
17754,5052448,8
17763,3315342,10
17786,3315342,9
17786,4425200,7
17806,3315342,9
17830,2771200,7
17851,3315342,9
17864,3315342,9
17864,3731562,10
17864,5442430,7
17956,1293847,1
17956,3171832,10
17980,3315342,10
17980,3731562,7
17980,4425200,9
17980,5052448,8
17998,3315342,8
18015,3731562,7
18056,3401882,5
18059,4630562,8
18098,3315342,9
18169,5607714,8
18180,3405236,8
18226,3896198,3
18226,4630562,10
18231,3315342,6
18241,1219827,5
18241,1293847,5
18241,3315342,8
18241,4630562,7
18245,2771200,10
18245,4287320,8
18250,3315342,7
18286,3717490,7
18295,3315342,8
18306,2763304,8
18306,2771200,6
18306,3315342,6
18306,3731562,6
18306,4116284,7
18306,4425200,7
18346,2771200,3
18346,4630562,8
18346,5710514,4
18412,3315342,10
18412,3717490,5
18412,4116284,7
18412,4630562,4
18443,5460276,9
18484,2072233,6
18484,4630562,8
18485,1293847,5
18490,3315342,8
18497,3315342,9
18504,4116284,9
18504,4425200,9
18508,2582576,7
18508,3315342,5
18508,4116284,8
18531,3401882,5
18531,4425200,4
18535,3315342,9
18535,4425200,9
18538,3315342,7
18538,5052448,8
18552,3315342,9
18555,3315342,9
18555,3731562,8
18580,2072233,6
18588,3171832,9
18590,1219827,9
18700,3315342,8
18700,4116284,9
18700,5052448,8
18729,3315342,9
18747,2771200,10
18747,3315342,10
18747,3874544,6
18747,4630562,10
18759,2771200,9
18772,5442430,6
18808,4630562,7
18865,1753383,1
18865,4581576,8
18911,5052448,9
18925,1219827,7
18925,3315342,8
18925,3731562,10
18925,4630562,7
18926,3731562,8
18926,4425200,10
18951,3717490,10
19021,4465564,5
19043,2771200,9
19087,4630562,1
19099,3315342,6
19099,3717490,6
19099,3874544,7
19100,2582576,7
19100,5442430,8
19147,5052448,8
19168,3315342,6
19202,5460276,8
19245,5052448,8
19282,493405,8
19282,2771200,6
19282,3315342,10
19282,3717490,8
19282,3896198,10
19298,2072233,6
19298,3315342,8
19298,3717490,7
19298,4630562,8
19333,3731562,6
19368,1219827,1
19386,3405236,8
19419,4630562,9
19451,3717490,10
19465,4630562,7
19484,2072233,8
19484,2771200,10
19514,498381,4
19514,1219827,4
19514,1293847,3
19514,2568862,5
19514,3731562,6
19514,3874544,4
19514,4287320,5
19514,4425200,8
19514,5052448,7
19557,1219827,6
19557,3315342,7
19557,5442430,5
19567,3731562,5
19568,4465564,2
19576,3315342,9
19584,4630562,10
19592,1730768,9
19594,1293847,3
19654,2763304,9
19654,4425200,8
19670,1219827,7
19670,2771200,6
19670,3315342,7
19670,3717490,6
19670,3731562,7
19670,3874544,7
19670,3896198,7
19670,4116284,7
19670,4425200,8
19670,4630562,6
19670,5052448,9
19670,5442430,7
19735,3171832,8
19751,2763304,7
19751,5052448,5
19768,2771200,5
19768,3315342,8
19768,3896198,7
19771,3315342,10
19775,3731562,5
19798,3315342,8
19798,5607714,7
19807,1293847,2
19829,3315342,9
19829,4116284,10
19830,3731562,9
19837,3315342,8
19880,3717490,10
19964,1219827,8
19964,3315342,5
19964,3731562,9
19964,3896198,5
19964,4425200,5
19971,3171832,8
19996,4425200,8
20038,3315342,10
20058,3731562,7
20060,2771200,8
20093,3731562,10
20104,3315342,9
20104,5052448,8
20111,3315342,5
20111,5052448,7
20155,1219827,7
20155,3315342,8
20155,4630562,8
20160,2771200,8
20160,4116284,9
20160,4630562,7
20162,4116284,7
20169,2771200,10
20173,1219827,1
20173,2763304,8
20209,4630562,8
20215,3731562,1
20215,5442430,7
20235,4425200,10
20256,1753383,10
20259,4630562,10
20331,3896198,6
20331,4116284,6
20342,4630562,8
20371,3896198,10
20371,4425200,10
20408,2771200,7
20408,3315342,9
20408,3731562,6
20408,4116284,8
20408,4425200,8
20408,4630562,6
20408,5052448,10
20419,1219827,6
20419,3315342,8
20419,4425200,7
20452,2582576,8
20452,4116284,10
20453,3315342,10
20457,2072233,5
20457,3315342,6
20457,3731562,8
20457,4425200,7
20457,4581576,5
20457,4630562,6
20457,5052448,7
20457,5442430,7
20486,498381,7
20486,3315342,8
20486,4030600,6
20486,5052448,6
20496,3315342,8
20496,3731562,7
20496,4630562,9
20526,3874544,6
20526,4116284,8
20526,5052448,8
20536,2771200,7
20536,3315342,8
20536,3731562,8
20536,3896198,6
20536,4425200,7
20536,4630562,5
20536,5052448,8
20539,2072233,8
20543,5155780,9
20553,2771200,10
20581,3315342,9
20581,3731562,7
20581,3896198,8
20589,3315342,8
20634,2771200,7
20634,3315342,7
20634,3405236,6
20634,4425200,8
20634,5982852,6
20652,3731562,7
20679,1753383,8
20691,4425200,8
20701,5155780,6
20849,3315342,9
20860,1293847,6
20898,1293847,7
20898,3405236,5
20913,4630562,7
20928,5052448,8
21005,3315342,8
21005,3717490,8
21005,5052448,9
21018,2771200,5
21018,3315342,9
21018,3731562,7
21049,3315342,7
21059,3315342,10
21073,4425200,8
21079,2771200,10
21112,5052448,7
21132,3315342,10
21147,2771200,9
21154,3315342,10
21154,3731562,8
21154,4425200,1
21154,4630562,7
21156,3315342,9
21181,3315342,9
21242,4465564,4
21243,4425200,8
21258,5710514,4
21271,3874544,6
21277,5442430,4
21301,2771200,7
21301,3315342,9
21301,3717490,7
21301,3731562,8
21301,4116284,8
21301,4425200,10
21301,5052448,9
21304,1219827,7
21304,2771200,8
21304,3731562,6
21304,5052448,9
21329,3315342,10
21329,3896198,10
21340,4425200,1
21380,2568862,5
21380,3731562,5
21380,5442430,8
21411,2771200,7
21416,4425200,10
21421,3731562,8
21430,2568862,7
21430,5052448,5
21505,3896198,10
21518,3315342,9
21588,3315342,9
21626,4481414,9
21668,2771200,7
21668,4116284,8
21680,2771200,8
21680,3315342,9
21680,3731562,7
21680,3874544,6
21680,4116284,7
21680,4465564,4
21680,5052448,7
21680,5442430,6
21681,498381,6
21681,3731562,9
21681,5052448,7
21705,1293847,5
21705,3731562,8
21705,3874544,5
21706,3315342,8
21723,3315342,9
21731,3315342,10
21770,5155780,7
21779,3896198,10
21784,5052448,9
21852,2771200,10
21874,2771200,8
21874,3731562,8
21898,1219827,8
21898,2763304,8
21898,2771200,6
21898,3315342,8
21898,3717490,6
21898,3731562,8
21898,3896198,9
21898,3922818,6
21898,4425200,7
21898,4465564,5
21898,4581576,6
21898,4630562,6
21898,5442430,7
21913,3315342,8
21933,3896198,8
21941,3315342,10
21941,5442430,7
21943,4630562,8
21962,1219827,8
21962,3315342,8
21992,3717490,5
21997,2763304,7
21997,4116284,6
22001,3315342,10
22011,1219827,5
22011,1293847,2
22011,2763304,9
22011,2771200,9
22011,3315342,8
22011,3731562,6
22011,4116284,9
22011,4425200,8
22011,4630562,6
22029,3315342,10
22045,3315342,9
22059,5052448,9
22129,3717490,1
22133,1293847,10
22133,3315342,10
22133,3731562,8
22133,4630562,8
22135,1293847,6
22135,2072233,6
22135,3315342,7
22135,3731562,7
22138,2771200,9
22138,3315342,6
22138,3896198,7
22152,2763304,8
22152,2771200,8
22152,3315342,8
22186,2568862,6
22186,3315342,10
22186,3731562,4
22186,4630562,1
22186,5052448,9
22186,5442430,9
22194,2763304,7
22194,5442430,8
22230,2771200,8
22230,3315342,8
22241,2771200,8
22251,2568862,6
22258,4630562,7
22258,4849438,9
22262,3731562,7
22290,1691916,7
22290,2568862,6
22290,3315342,9
22290,4287320,5
22290,4425200,6
22290,5052448,8
22290,5442430,5
22315,4630562,7
22325,2568862,6
22325,4630562,9
22325,5052448,4
22325,5442430,7
22389,3315342,10
22406,3315342,6
22406,5442430,7
22447,2398241,8
22447,2771200,10
22447,3315342,8
22447,4630562,7
22456,2771200,7
22456,3315342,6
22456,4116284,7
22456,4481414,6
22456,5052448,8
22456,5442430,6
22485,3315342,9
22485,4630562,8
22512,4630562,8
22534,2771200,7
22534,3315342,10
22534,3731562,8
22534,3896198,9
22534,5442430,8
22550,3315342,9
22550,3896198,9
22550,4630562,8
22597,2072233,5
22597,2771200,9
22597,4630562,10
22597,5442430,10
22604,3315342,10
22604,5442430,10
22611,3315342,7
22645,4116284,7
22651,2398241,7
22651,2771200,8
22651,3315342,8
22651,3405236,7
22651,3731562,6
22659,5052448,9
22698,3405236,8
22698,3731562,7
22698,4849438,9
22698,5982852,6
22715,4116284,10
22736,5052448,9
22762,2763304,8
22762,4116284,6
22786,3717490,6
22786,3731562,7
22801,1219827,7
22801,5442430,8
22803,2771200,6
22803,5442430,6
22805,2763304,8
22806,4425200,2
22841,3731562,6
22841,5442430,7
22862,1219827,2
22862,2771200,7
22862,3315342,7
22862,3717490,4
22862,4116284,7
22862,5442430,9
22887,2568862,7
22887,3315342,7
22887,4425200,1
22899,2763304,10
22915,4425200,7
22945,1293847,2
22945,2072233,10
22945,2568862,10
22945,3315342,10
22945,3401882,8
22945,3922818,10
22945,4425200,2
22945,5442430,10
22960,3315342,7
22978,3896198,8
22998,3315342,9
23152,2568862,7
23152,2771200,10
23152,3315342,7
23152,3717490,7
23152,3731562,9
23152,3922818,8
23152,4630562,9
23152,5442430,6
23243,3315342,8
23251,3315342,9
23269,1293847,6
23274,3731562,6
23277,3315342,8
23307,1730768,10
23395,1753383,10
23395,4630562,8
23419,1219827,8
23421,3731562,10
23423,4630562,8
23496,2771200,9
23496,3315342,10
23496,5052448,8
23507,4465564,1
23536,2568862,10
23550,3315342,7
23550,3731562,9
23550,4116284,7
23550,4425200,9
23572,1219827,6
23572,3315342,7
23597,3315342,10
23597,4425200,10
23597,4630562,9
23601,4630562,3
23623,3874544,7
23624,3315342,8
23634,3315342,7
23687,3731562,3
23688,3731562,7
23695,2771200,7
23695,5052448,2
23712,498381,1
23712,3731562,10
23712,5052448,6
23743,5052448,9
23879,3405236,10
23880,3922818,5
23912,498381,4
23912,3874544,7
23941,5442430,9
23943,3315342,9
23951,4630562,8
23951,5442430,4
23956,1219827,6
23956,2763304,7
23956,2771200,6
23956,3315342,9
23956,3717490,6
23956,3731562,7
23956,3896198,9
23956,4116284,6
23956,4287320,6
23956,4425200,8
23956,4630562,6
23956,5442430,6
23956,5710514,8
23982,4849438,9
24006,5052448,9
24041,3874544,10
24134,3315342,9
24134,3731562,9
24134,4425200,7
24134,5052448,8
24134,5710514,9
24177,2763304,8
24178,3731562,8
24215,3315342,9
24215,4116284,5
24218,3874544,6
24224,3315342,10
24224,3731562,8
24232,3717490,10
24255,5442430,10
24268,5052448,8
24318,4425200,8
24323,3731562,7
24368,3171832,7
24368,3315342,10
24368,3896198,8
24401,1219827,8
24401,2568862,7
24401,4630562,8
24426,5442430,10
24441,2771200,8
24450,4630562,8
24461,5052448,8
24461,5442430,6
24471,2771200,7
24471,4630562,6
24474,1219827,7
24474,1293847,6
24474,4630562,8
24487,4849438,10
24502,498381,6
24502,1219827,5
24502,1293847,4
24502,2072233,7
24502,2398241,6
24502,2568862,6
24502,3315342,6
24502,3462710,6
24502,3731562,6
24502,3874544,6
24502,3896198,7
24502,4287320,6
24502,4425200,5
24502,4581576,7
24502,4630562,7
24502,5052448,7
24502,5442430,7
24503,3896198,7
24510,3731562,9
24510,5442430,7
24525,3315342,8
24526,2568862,8
24526,3315342,10
24548,4425200,8
24548,5052448,9
24550,3315342,10
24570,5155780,5
24572,4425200,9
24574,1219827,7
24574,4425200,8
24633,1219827,9
24633,4425200,7
24660,2771200,8
24660,3315342,9
24663,4116284,8
24696,4465564,7
24721,1293847,8
24731,3315342,9
24731,4116284,7
24742,4425200,10
24761,2771200,9
24761,3315342,10
24761,3731562,5
24761,3922818,5
24761,4116284,10
24761,4287320,10
24761,4481414,10
24787,5052448,8
24843,3315342,10
24843,4116284,8
24896,5052448,7
24914,4030600,5
24914,5052448,8
24978,4116284,7
24997,5052448,9
25033,4630562,8
25040,4425200,5
25068,3315342,10
25110,2771200,8
25131,5155780,10
25138,1219827,10
25138,4630562,7
25151,3315342,8
25176,3315342,5
25179,2771200,6
25213,3315342,8
25219,5710514,3
25244,4030600,10
25250,3717490,7
25250,3896198,9
25260,493405,5
25260,1293847,5
25260,3315342,10
25331,5442430,10
25349,1219827,6
25349,3315342,8
25349,4425200,7
25349,4465564,6
25349,5442430,7
25400,4630562,9
25438,3874544,6
25438,4116284,8
25438,5052448,8
25440,2771200,9
25440,3922818,8
25449,3315342,9
25450,5052448,9
25455,3405236,5
25460,4630562,7
25468,4116284,8
25475,2771200,7
25475,3315342,10
25475,3717490,7
25475,3731562,8
25475,3896198,9
25475,4465564,6
25475,4630562,8
25489,3896198,9
25507,3315342,10
25520,2771200,7
25520,3315342,9
25520,5052448,9
25534,5607714,8
25553,3315342,9
25553,3731562,8
25553,4425200,10
25553,4630562,8
25591,1219827,7
25591,2771200,8
25591,3315342,8
25591,3731562,6
25591,5442430,8
25650,5442430,8
25684,5052448,3
25724,5442430,10
25737,2568862,7
25737,3171832,6
25739,2771200,9
25739,3315342,10
25739,3731562,9
25739,3896198,6
25739,4465564,10
25739,4630562,9
25739,5052448,8
25760,5052448,5
25848,3315342,8
25894,3874544,8
25945,2763304,9
25945,3315342,9
25945,5442430,8
25960,1219827,8
26023,3896198,7
26036,2771200,8
26071,4481414,10
26078,5155780,5
26093,2771200,8
26093,3731562,6
26144,1219827,8
26144,3315342,7
26216,4465564,1
26216,5155780,7
26268,498381,6
26304,1219827,8
26304,2771200,8
26304,3315342,8
26304,3717490,10
26304,3731562,8
26304,4465564,8
26305,4425200,9
26321,3315342,9
26321,4425200,10
26321,4630562,10
26324,3315342,9
26324,5442430,9
26332,4425200,9
26337,1219827,6
26337,2771200,7
26337,3315342,7
26337,3896198,8
26337,4425200,7
26337,4630562,6
26337,5155780,6
26337,5442430,8
26341,3315342,8
26341,4630562,9
26366,2763304,8
26366,3315342,9
26366,4116284,8
26376,4630562,7
26397,1293847,6
26397,4287320,6
26403,3315342,9
26403,3731562,8
26403,4116284,8
26403,4425200,8
26403,4630562,7
26403,5052448,5
26446,1293847,8
26446,3315342,9
26446,3731562,9
26454,3315342,8
26454,3896198,8
26454,5052448,9
26492,5052448,9
26506,2771200,9
26516,1293847,8
26530,2771200,9
26530,3315342,10
26530,4425200,9
26532,3315342,10
26532,3731562,10
26532,4465564,4
26552,3315342,9
26578,5710514,8
26584,4425200,6
26655,2771200,8
26655,3315342,10
26655,4116284,9
26655,5052448,9
26655,5442430,7
26659,4630562,8
26662,4630562,6
26691,3171832,8
26691,4630562,2
26691,5460276,7
26691,5982852,8
26701,3315342,10
26701,3731562,7
26701,3896198,9
26758,4425200,8
26767,1219827,7
26767,5442430,7
26771,4425200,9
26784,5155780,8
26791,3315342,4
26791,5052448,9
26791,5442430,9
26814,3315342,7
26814,4425200,10
26825,1293847,10
26825,4630562,10
26869,4116284,6
26912,1293847,6
26912,2771200,7
26912,3315342,8
26912,3731562,7
26912,4630562,7
26955,1219827,7
26969,3315342,8
26969,4425200,5
26969,4630562,8
27001,1219827,5
27001,2398241,1
27001,2771200,3
27001,3717490,2
27001,3874544,3
27001,3896198,4
27001,3922818,2
27001,5442430,4
27045,5052448,9
27058,498381,3
27058,1219827,4
27058,3315342,9
27058,3717490,7
27058,3731562,5
27058,4630562,7
27058,5052448,6
27069,3315342,5
27069,3731562,8
27074,3315342,8
27085,2763304,8
27085,3315342,9
27085,3731562,5
27085,3896198,8
27085,4630562,6
27092,5052448,10
27093,498381,5
27093,3405236,3
27093,4425200,6
27129,2763304,9
27129,3315342,9
27129,4425200,7
27129,4630562,6
27131,5607714,10
27146,5442430,10
27149,2771200,8
27149,5442430,7
27161,2771200,8
27204,3315342,10
27236,3315342,9
27236,3717490,7
27236,4630562,8
27236,5052448,9
27247,1293847,1
27285,3315342,10
27314,1293847,5
27314,3315342,9
27314,4116284,9
27366,4425200,5
27366,5442430,8
27372,2771200,10
27372,5442430,9
27384,1293847,5
27384,3405236,7
27384,5460276,9
27386,4630562,6
27432,2771200,6
27432,3401882,5
27432,3731562,7
27443,2771200,7
27443,5052448,7
27483,3315342,8
27483,3717490,7
27483,3896198,9
27541,1219827,7
27541,3315342,10
27541,3731562,9
27541,3896198,9
27541,4630562,8
27541,5442430,9
27546,1219827,5
27546,2763304,7
27550,1753383,10
27550,3731562,8
27582,5052448,8
27587,5442430,6
27593,3315342,9
27593,4116284,8
27602,3315342,8
27641,2771200,8
27688,5052448,5
27699,3731562,6
27704,1293847,8
27712,3896198,10
27731,1293847,5
27731,2763304,7
27775,3315342,9
27781,2771200,7
27781,3315342,8
27781,3731562,5
27781,4465564,5
27781,5052448,7
27796,2771200,6
27813,2771200,10
27817,3315342,10
27817,3731562,9
27861,4630562,6
27865,2771200,5
27865,3315342,5
27865,3731562,7
27955,2763304,6
27955,5052448,9
27978,2763304,10
27990,3171832,9
27990,4217392,10
28026,2771200,7
28026,3315342,7
28026,3874544,8
28026,3896198,8
28026,4116284,8
28040,3731562,6
28055,3315342,9
28063,4465564,10
28073,2763304,9
28073,2771200,8
28073,3315342,8
28073,4116284,5
28081,2072233,7
28103,1293847,7
28103,2398241,2
28103,2568862,7
28103,3315342,8
28103,3405236,7
28103,3731562,5
28103,3874544,7
28103,4425200,7
28103,4465564,6
28103,4630562,7
28103,5442430,6
28107,5052448,10
28134,4630562,5
28152,3315342,7
28155,3731562,10
28186,1219827,5
28186,4465564,10
28207,498381,3
28207,4425200,5
28207,5052448,10
28207,5710514,9
28211,2771200,8
28211,3315342,9
28256,3731562,9
28256,4581576,5
28256,5052448,7
28290,3717490,7
28300,498381,5
28300,3315342,9
28300,3731562,8
28301,4630562,7
28318,3315342,8
28331,5442430,10
28373,3315342,9
28394,3315342,8
28394,4116284,8
28399,3896198,9
28399,4630562,9
28404,1219827,7
28404,2763304,9
28404,3731562,7
28474,5442430,9
28475,4116284,7
28522,3731562,8
28542,3731562,7
28542,3896198,9
28552,3922818,7
28584,1219827,4
28584,1730768,8
28584,2763304,7
28584,3874544,8
28584,4425200,5
28604,2763304,8
28604,3315342,7
28604,4425200,8
28604,4465564,7
28604,4630562,8
28604,5052448,7
28604,5442430,8
28706,1219827,8
28706,2771200,6
28706,4630562,6
28714,4425200,6
28734,3315342,8
28734,4425200,9
28783,2568862,7
28783,4630562,5
28783,5052448,6
28784,3405236,10
28885,3922818,3
28890,2771200,7
28890,3315342,5
28891,3315342,9
28925,5442430,7
28944,1219827,6
28951,5052448,6
28958,3731562,8
28958,4425200,9
28958,4630562,8
28967,4630562,6
28975,3315342,9
29015,2763304,7
29015,3315342,7
29039,3171832,7
29039,3896198,9
29125,3731562,7
29155,5052448,8
29167,3315342,10
29169,1293847,9
29172,3315342,9
29198,2072233,6
29198,2582576,8
29202,3315342,10
29202,3896198,10
29202,4116284,9
29202,4630562,8
29205,2771200,7
29205,3315342,10
29205,3401882,5
29205,3731562,5
29205,4425200,6
29205,4630562,5
29205,5052448,7
29205,5442430,6
29206,3717490,7
29212,3315342,9
29213,2763304,8
29213,2771200,6
29213,3315342,8
29213,4287320,6
29213,4425200,8
29213,5442430,8
29226,4116284,7
29226,4425200,7
29229,5052448,10
29232,2072233,4
29234,3315342,9
29246,3896198,6
29246,5442430,5
29293,3896198,6
29293,5442430,8
29325,3896198,8
29325,5052448,7
29337,1219827,8
29337,3315342,8
29345,3315342,10
29350,1730768,9
29350,4425200,8
29350,4630562,8
29374,3315342,10
29377,1219827,4
29377,1293847,5
29377,3315342,9
29377,3731562,7
29377,4425200,10
29404,3315342,10
29453,1293847,6
29467,1219827,6
29491,4630562,6
29500,3315342,6
29500,3405236,5
29521,4425200,10
29527,3315342,9
29527,3731562,8
29540,3405236,6
29540,4630562,7
29594,498381,5
29594,3315342,8
29594,3731562,6
29594,4425200,7
29599,2582576,6
29599,3315342,10
29599,3731562,8
29599,5052448,10
29601,1219827,8
29601,3315342,8
29601,3896198,9
29630,3401882,1
29661,2771200,10
29674,5710514,7
29684,3315342,6
29684,4465564,1
29688,3731562,8
29688,3896198,9
29688,4116284,6
29700,4116284,4
29700,4465564,1
29706,3315342,10
29727,3731562,5
29738,5442430,7
29764,2771200,10
29764,3315342,6
29764,4116284,10
29819,2072233,8
29828,4581576,1
29841,3896198,9
29841,4116284,10
29841,5052448,8
29841,5442430,8
29868,3315342,8
29868,3717490,7
29868,3731562,7
29868,4425200,8
29868,4465564,7
29868,4630562,5
29868,5052448,8
29899,1219827,6
29907,3315342,9
29907,3731562,7
29907,4425200,7
29908,3731562,8
29926,5052448,5
29944,3171832,10
29968,2582576,8
29968,3731562,7
29976,4630562,10
29988,5155780,8
30013,1219827,6
30013,2771200,6
30013,3315342,9
30014,1219827,5
30020,5052448,10
30141,4425200,10
30184,2771200,9
30217,1753383,10
30240,3315342,10
30285,3896198,8
30285,4030600,5
30322,3315342,9
30351,2771200,9
30351,3731562,8
30353,3874544,8
30353,4630562,8
30377,5607714,6
30386,1293847,10
30386,3401882,10
30386,3731562,10
30386,4630562,10
30397,5052448,8
30406,3315342,10
30406,5442430,7
30441,2771200,7
30441,4630562,6
30466,2763304,7
30466,3315342,8
30476,2568862,6
30476,2771200,8
30476,3315342,6
30476,3401882,7
30476,3731562,6
30476,4425200,6
30476,5052448,6
30476,5442430,7
30495,1219827,6
30495,2568862,5
30495,4630562,8
30495,5442430,9
30519,2771200,9
30519,5052448,9
30522,3315342,10
30522,4630562,6
30532,2771200,8
30532,3315342,8
30532,3874544,5
30532,5052448,8
30532,5442430,6
30562,3315342,9
30578,5442430,4
30604,2763304,8
30621,3315342,10
30632,5710514,6
30639,3405236,7
30694,3171832,6
30811,3315342,9
30811,5442430,6
30849,3315342,10
30856,3731562,8
30856,5442430,8
30873,3315342,9
30881,3731562,7
30883,3315342,8
30887,2763304,8
30887,3315342,9
30887,3896198,9
30887,4116284,7
30887,4425200,7
30921,3315342,9
30930,2771200,8
30930,3315342,10
30930,3717490,7
30930,4425200,9
30938,5052448,10
30943,3731562,5
30980,5052448,9
31004,3315342,10
31029,1219827,7
31029,3315342,9
31029,3731562,7
31029,3922818,7
31029,4116284,5
31029,4425200,7
31029,4465564,4
31029,4630562,7
31029,5052448,7
31029,5442430,7
31089,3315342,9
31098,3315342,10
31098,3731562,7
31122,3315342,9
31122,4425200,8
31135,3315342,9
31138,4425200,10
31138,4465564,4
31141,2771200,10
31146,3315342,8
31146,3731562,8
31146,5052448,9
31180,2771200,7
31180,3874544,6
31195,3315342,8
31198,3922818,10
31207,2771200,8
31234,1219827,5
31234,1691916,6
31234,2072233,5
31234,2568862,7
31234,3315342,8
31234,3874544,6
31234,3896198,8
31234,4287320,5
31234,4425200,7
31234,4630562,7
31294,3315342,8
31294,3717490,7
31294,3731562,8
31294,4425200,9
31294,5052448,8
31327,1219827,8
31327,3896198,9
31351,493405,6
31391,3315342,9
31410,3731562,8
31494,2771200,8
31494,3315342,8
31494,4425200,8
31494,4465564,5
31504,3731562,7
31509,2771200,8
31518,2771200,10
31527,5052448,8
31540,3171832,9
31545,1219827,8
31612,493405,7
31612,3731562,7
31612,4217392,7
31612,4425200,9
31612,4630562,9
31612,5052448,7
31691,5460276,7
31696,3315342,8
31696,5052448,6
31696,5710514,8
31715,3315342,10
31715,5052448,9
31733,5052448,10
31754,1219827,7
31754,1293847,5
31754,2568862,5
31754,2763304,8
31754,2771200,9
31754,3731562,5
31754,4465564,5
31754,4630562,7
31754,5052448,8
31754,5442430,7
31774,4630562,10
31777,1219827,7
31777,3315342,9
31777,3731562,7
31777,4425200,8
31777,4630562,6
31777,5442430,8
31783,5052448,9
31791,4425200,7
31816,3922818,7
31816,5052448,9
31830,3315342,9
31831,4630562,10
31831,5052448,10
31837,4030600,4
31870,3315342,9
31870,4630562,8
31877,5052448,10
31883,2771200,8
31901,1219827,6
31901,2763304,7
31901,3315342,7
31901,3731562,7
31901,3896198,7
31901,4630562,7
31901,5052448,9
31903,2568862,7
31903,2771200,8
31903,3315342,9
31903,3731562,7
31903,3874544,7
31903,4425200,8
31903,4630562,8
31903,5052448,9
31904,2771200,7
31909,3315342,8
31940,3315342,10
31960,2771200,8
31960,3315342,9
31960,3731562,7
31960,3874544,5
31960,3896198,10
31960,5052448,8
31960,5442430,8
31962,4425200,10
31962,4630562,10
31977,3717490,2
31977,5442430,7
31989,3315342,10
31997,3731562,6
32006,2763304,7
32027,3896198,10
32049,5442430,9
32067,3315342,9
32067,5052448,7
32092,2763304,10
32092,3315342,10
32092,3874544,8
32112,4465564,5
32128,2763304,8
32128,5052448,7
32158,3315342,9
32158,3731562,7
32187,1293847,9
32195,3731562,7
32195,4630562,7
32196,3315342,8
32208,3731562,9
32217,2763304,8
32219,1219827,9
32219,3731562,8
32219,5442430,8
32239,3315342,7
32239,5052448,7
32249,3731562,8
32269,3171832,7
32284,3315342,10
32336,1219827,6
32336,3315342,9
32336,3731562,8
32336,5442430,8
32341,2771200,10
32346,2582576,3
32346,2771200,4
32346,3315342,8
32346,3731562,7
32346,4116284,7
32346,5052448,10
32346,5155780,7
32346,5442430,7
32346,5710514,9
32348,4425200,9
32348,5052448,8
32363,3896198,8
32377,4425200,10
32377,5052448,8
32381,3315342,10
32384,3731562,4
32388,2771200,7
32388,3315342,8
32388,4630562,5
32409,498381,5
32449,2072233,3
32457,1219827,7
32489,5052448,9
32503,4116284,8
32509,2072233,6
32522,1219827,8
32522,2763304,8
32522,3315342,8
32522,3731562,4
32522,4116284,6
32522,4630562,2
32522,5442430,6
32530,3315342,10
32559,3401882,10
32581,1219827,7
32588,3731562,10
32630,2771200,6
32642,3315342,10
32647,2771200,8
32653,5052448,8
32656,5052448,9
32665,3731562,6
32677,4425200,8
32692,5442430,0
32694,1293847,5
32694,3315342,9
32694,4425200,10
32721,1730768,7
32721,2771200,10
32721,3717490,6
32721,3731562,6
32728,3315342,10
32759,4425200,4
32775,2771200,9
32798,3717490,5
32798,5442430,9
32821,498381,6
32821,2763304,7
32821,3315342,8
32821,5442430,9
32835,3315342,8
32857,4425200,9
32859,3315342,8
32871,2072233,7
32871,3315342,8
32888,5052448,9
32896,3731562,8
32936,2771200,8
32936,3315342,8
32936,3717490,7
32936,3731562,7
32936,4116284,6
32936,4425200,7
32943,4630562,9
32970,4116284,5
32981,498381,8
32981,1753383,1
32985,3731562,8
32997,498381,5
32997,3315342,10
32997,3731562,6
32997,4217392,5
32997,4581576,6
32997,5052448,10
33043,2771200,9
33043,3874544,7
33043,4630562,9
33043,5052448,9
33119,4425200,4
33173,3315342,9
33183,1293847,6
33188,1293847,6
33188,2771200,6
33188,3731562,7
33188,5442430,7
33194,1219827,5
33194,2568862,7
33194,2771200,8
33194,3315342,9
33194,3731562,6
33194,3896198,8
33194,4116284,9
33194,4630562,9
33197,2771200,7
33238,2771200,8
33238,4287320,6
33310,1219827,5
33310,1293847,5
33310,2398241,5
33310,3462710,4
33310,3731562,7
33310,4425200,9
33310,4465564,5
33310,4630562,6
33310,5052448,7
33320,3922818,9
33340,3717490,8
33353,1293847,6
33353,3874544,7
33353,5052448,9
33353,5442430,9
33369,2771200,8
33369,3315342,9
33369,3731562,6
33369,4116284,8
33369,5052448,8
33369,5442430,7
33379,3315342,10
33388,4425200,3
33394,5442430,10
33401,3315342,10
33402,2771200,10
33429,3315342,8
33470,2771200,7
33470,3315342,9
33494,2771200,8
33567,4630562,7
33576,1219827,8
33580,5052448,1
33619,5710514,10
33639,3874544,7
33639,5052448,8
33660,3731562,5
33743,3315342,8
33743,4116284,8
33752,498381,5
33752,2568862,6
33752,3405236,6
33752,3731562,6
33767,3315342,9
33767,3896198,9
33786,498381,3
33803,1293847,5
33803,2568862,7
33803,3315342,8
33822,1293847,5
33822,4630562,8
33829,5052448,7
33853,3315342,9
33853,3731562,5
33853,5442430,7
33861,3315342,8
33861,3874544,10
33861,4581576,2
33861,5442430,7
33878,1219827,10
33890,3874544,6
33944,3171832,5
33944,3315342,9
33944,3731562,7
33944,3896198,5
33944,3922818,7
33944,5052448,9
33944,5710514,7
33970,3315342,8
33970,4465564,8
33974,3315342,9
33976,3315342,10
33976,4425200,8
34004,3405236,6
34020,3315342,8
34022,4116284,9
34025,4630562,7
34027,2072233,1
34027,3731562,6
34027,4425200,6
34129,4425200,9
34155,3315342,7
34167,3315342,7
34167,3405236,8
34167,3717490,8
34167,4287320,6
34167,4630562,10
34167,5052448,8
34261,1293847,2
34261,3315342,5
34261,4630562,5
34284,498381,0
34284,1219827,7
34284,3731562,8
34284,5052448,8
34284,5442430,5
34303,5052448,6
34350,5052448,8
34370,1293847,5
34370,3315342,7
34370,4116284,7
34370,4630562,6
34389,1293847,2
34399,2771200,6
34399,3315342,7
34399,3731562,7
34399,4425200,7
34399,4630562,7
34399,5442430,6
34400,2771200,8
34400,3315342,9
34400,4630562,9
34413,2763304,9
34488,2771200,10
34494,3315342,9
34508,3717490,7
34508,4481414,7
34508,4630562,7
34542,3315342,8
34542,3717490,7
34542,4425200,9
34542,5052448,7
34545,1293847,10
34545,3315342,10
34545,3922818,6
34554,5710514,5
34567,3315342,7
34567,3405236,6
34567,4116284,5
34567,4425200,3
34567,5460276,6
34567,5982852,8
34573,4630562,8
34573,5052448,6
34633,3315342,8
34641,5442430,6
34643,1219827,10
34643,3315342,9
34656,3315342,9
34656,3731562,1
34656,5052448,7
34662,5607714,10
34667,1219827,7
34667,3315342,9
34667,4116284,7
34734,4116284,6
34773,2072233,6
34773,3315342,7
34773,3731562,7
34773,4581576,6
34773,5442430,5
34780,3315342,1
34780,5052448,8
34780,5442430,5
34812,498381,1
34812,3315342,8
34812,3731562,2
34813,2771200,7
34813,3315342,9
34813,3717490,8
34813,3896198,6
34824,3315342,4
34827,3315342,7
34827,5052448,7
34849,4425200,5
34849,5460276,8
34852,5442430,7
34895,2763304,7
34895,3315342,8
34895,3731562,6
34938,3896198,8
34981,3315342,10
34997,3315342,8
34997,4630562,7
35007,3315342,8
35011,2771200,10
35011,3315342,9
35017,5052448,5
35024,5052448,10
35047,1219827,8
35047,2771200,4
35057,2771200,7
35090,3896198,9
35104,4425200,9
35104,5052448,9
35115,3896198,7
35118,2771200,6
35123,1219827,7
35123,2771200,8
35123,3315342,7
35160,1219827,7
35160,2072233,7
35160,3315342,8
35160,3731562,7
35160,4630562,7
35160,5052448,8
35176,3315342,9
35208,2568862,6
35208,3315342,9
35211,3405236,6
35228,5442430,7
35238,3315342,10
35238,3731562,10
35238,4116284,10
35238,4425200,10
35238,4630562,8
35238,5052448,9
35238,5442430,8
35277,2771200,7
35277,3731562,8
35277,5442430,7
35297,3315342,9
35324,5052448,10
35433,2771200,10
35468,3315342,9
35478,3315342,7
35481,5442430,1
35518,4630562,9
35551,1293847,6
35551,3171832,7
35565,1219827,10
35582,5442430,6
35596,1219827,5
35596,3315342,9
35610,3315342,9
35610,4465564,10
35613,493405,4
35658,1293847,9
35658,2568862,8
35658,2771200,8
35658,3315342,10
35658,3717490,10
35658,3731562,9
35658,4630562,10
35658,5442430,8
35658,5460276,10
35664,2771200,10
35664,3315342,8
35664,3874544,5
35681,1219827,8
35681,1293847,4
35681,3731562,8
35681,4425200,10
35701,3315342,10
35708,2771200,8
35733,4425200,6
35748,1219827,7
35748,5442430,6
35782,2771200,6
35803,2771200,6
35803,3315342,8
35803,3717490,5
35803,3731562,7
35803,3874544,6
35803,4116284,8
35803,4465564,4
35816,4425200,10
35833,4287320,5
35833,5052448,8
35833,5442430,6
35938,2072233,5
35938,3922818,8
35938,5052448,7
35966,5052448,7
35970,3731562,8
35982,1219827,8
35982,3315342,7
35982,3731562,7
35982,5052448,8
35982,5155780,7
35982,5442430,6
35982,5710514,7
35993,3315342,9
35993,5442430,6
36082,2763304,7
36082,3315342,8
36152,5052448,8
36152,5442430,8
36172,2771200,10
36175,3171832,2
36186,2763304,8
36186,3874544,6
36187,3315342,10
36188,2072233,4
36189,3315342,10
36189,5052448,8
36204,4116284,8
36206,2771200,5
36206,3315342,1
36206,4425200,4
36206,4630562,8
36239,2763304,8
36239,2771200,6
36239,3315342,8
36245,5052448,9
36245,5442430,10
36273,3896198,9
36273,4425200,9
36281,4425200,10
36283,2072233,6
36314,5442430,3
36339,3315342,7
36339,3731562,6
36339,3896198,7
36339,4425200,6
36339,5052448,8
36396,3315342,9
36396,3874544,8
36396,4425200,9
36450,3896198,8
36481,2398241,4
36481,2771200,10
36484,2771200,9
36484,4465564,8
36500,3315342,10
36500,3731562,9
36500,4030600,4
36500,4116284,10
36500,4425200,10
36500,4465564,8
36500,5052448,10
36521,1293847,3
36521,2568862,7
36521,5052448,8
36528,3315342,9
36528,4116284,6
36611,2771200,8
36611,3315342,8
36611,4116284,8
36611,5442430,7
36627,4481414,8
36627,5052448,9
36705,3315342,10
36705,4630562,9
36718,5052448,7
36743,3315342,2
36743,3731562,10
36743,4030600,7
36759,3315342,10
36759,3731562,10
36812,2072233,2
36816,2763304,10
36821,2763304,8
36835,4425200,10
36843,5982852,8
36916,1219827,9
36948,4630562,6
36972,5442430,7
36975,4630562,7
37007,498381,2
37007,1691916,3
37007,4116284,3
37035,3874544,8
37035,5442430,1
37062,3896198,8
37068,3315342,7
37075,3315342,8
37077,2568862,8
37077,4030600,1
37110,3315342,7
37110,5442430,7
37181,3315342,10
37181,4425200,7
37203,2568862,7
37203,2771200,7
37203,3401882,2
37203,3731562,6
37203,4116284,6
37203,4287320,2
37203,4425200,7
37203,4481414,8
37203,4630562,2
37203,5052448,7
37237,2771200,5
37237,5052448,5
37251,3731562,8
37251,5442430,7
37321,3315342,7
37321,3874544,5
37321,3896198,8
37333,2072233,9
37393,3315342,7
37393,4425200,9
37440,3315342,5
37450,3315342,10
37451,3731562,9
37451,3896198,9
37451,4630562,8
37453,3315342,10
37508,2072233,7
37508,2771200,8
37508,3315342,8
37508,3731562,7
37508,3874544,6
37508,4116284,7
37508,4287320,5
37508,4630562,7
37508,5052448,8
37518,3315342,8
37524,3731562,8
37555,3315342,10
37555,4425200,10
37574,3315342,10
37591,3315342,8
37602,1219827,9
37602,2568862,9
37602,2771200,8
37604,4465564,10
37606,3315342,9
37617,3896198,9
37660,3315342,9
37697,2771200,10
37697,3315342,9
37703,3717490,8
37708,2771200,8
37780,3315342,10
37793,2771200,8
37793,3315342,8
37804,3874544,7
37811,1293847,3
37811,3315342,9
37811,3731562,6
37811,4425200,7
37811,4630562,5
37856,4425200,9
37856,4630562,8
37870,2582576,6
37870,5052448,6
37909,2771200,8
37909,3731562,8
37909,3896198,9
37922,1219827,7
37922,5442430,9
37926,3731562,6
37928,3315342,9
37935,3171832,7
37935,3315342,8
37935,3731562,5
37968,3315342,9
37994,5442430,9
37996,2771200,8
37996,3315342,8
37996,3731562,8
37996,3896198,7
37996,4425200,6
37996,4630562,9
38044,4425200,7
38069,3315342,9
38069,3731562,7
38069,3922818,8
38069,5052448,8
38069,5710514,5
38094,1293847,6
38094,2771200,7
38094,3315342,9
38102,1219827,6
38102,3315342,9
38102,3731562,7
38102,3896198,8
38102,4116284,8
38102,4425200,8
38102,4630562,6
38166,3896198,7
38178,1219827,5
38178,2763304,8
38178,2771200,7
38178,3315342,8
38178,3896198,8
38178,4425200,7
38178,5052448,8
38180,1219827,5
38186,3315342,5
38186,3401882,5
38186,5052448,4
38190,1219827,6
38190,3315342,8
38190,3896198,8
38214,1219827,7
38214,3315342,10
38214,4116284,9
38214,5052448,10
38231,3315342,7
38231,5442430,8
38241,2568862,1
38241,2771200,7
38241,3731562,6
38241,4630562,6
38245,5460276,5
38279,3315342,9
38285,3315342,8
38285,4425200,9
38287,3315342,8
38287,3896198,9
38287,5442430,8
38320,3315342,8
38320,5052448,10
38343,3171832,8
38345,3315342,10
38357,3315342,9
38374,2763304,10
38379,2771200,6
38388,4630562,3
38439,3315342,9
38467,1219827,8
38467,5442430,8
38504,4425200,8
38539,3717490,7
38573,3315342,10
38573,4425200,10
38598,493405,9
38598,2072233,8
38598,3717490,8
38598,5052448,5
38624,5052448,7
38627,3315342,8
38627,3731562,6
38640,5155780,8
38679,3315342,9
38679,3731562,9
38694,498381,5
38713,5052448,9
38741,4425200,5
38756,1219827,6
38778,5052448,8
38792,3731562,6
38809,3315342,7
38812,1753383,10
38812,2771200,7
38812,3315342,10
38812,3731562,6
38812,5052448,8
38822,4116284,7
38831,2771200,8
38862,2771200,6
38916,3731562,7
38919,4630562,8
38923,3171832,6
38924,2771200,10
38937,1219827,6
38937,2763304,8
38937,2771200,9
38937,3315342,7
38937,3731562,7
38937,3874544,7
38937,4116284,9
38937,4630562,8
38937,5052448,9
38937,5442430,6
38976,4425200,6
39006,2763304,7
39010,3717490,5
39010,3731562,8
39010,3896198,9
39010,4465564,8
39010,5442430,8
39060,4630562,10
39071,5052448,7
39084,3315342,10
39084,3731562,8
39088,4465564,8
39088,5155780,7
39142,3896198,6
39211,1691916,3
39221,2771200,1
39221,3171832,10
39221,3731562,8
39224,2771200,9
39224,3315342,10
39224,3731562,5
39224,4287320,10
39224,4481414,10
39225,4425200,10
39226,3315342,8
39226,3731562,7
39226,3896198,7
39226,4630562,7
39274,498381,2
39274,3731562,7
39274,3896198,8
39274,4116284,7
39274,4425200,8
39274,4630562,6
39291,2568862,7
39291,5442430,7
39322,2763304,10
39333,2771200,8
39347,1219827,7
39347,3315342,8
39347,3922818,5
39347,4630562,6
39351,3315342,9
39354,5052448,8
39378,3315342,10
39378,3717490,8
39378,4116284,9
39378,4630562,3
39413,1730768,7
39413,3315342,8
39413,3731562,7
39413,5052448,8
39413,5442430,7
39415,3315342,9
39439,1219827,8
39439,1293847,5
39439,3315342,6
39439,3731562,8
39439,5052448,9
39439,5442430,7
39445,1219827,5
39445,1730768,6
39445,1753383,5
39445,2771200,7
39445,3315342,7
39445,3401882,6
39445,3731562,7
39445,3874544,6
39445,4116284,7
39445,4287320,3
39445,4465564,1
39445,4630562,6
39445,5052448,9
39463,3731562,6
39482,2582576,6
39510,3315342,8
39510,3731562,7
39527,3731562,7
39543,3315342,8
39543,3731562,5
39549,3315342,9
39549,3874544,6
39571,4465564,0
39573,3315342,8
39573,4425200,8
39603,2568862,6
39603,4425200,5
39603,4630562,4
39603,5052448,8
39605,5052448,8
39613,2072233,7
39617,3731562,6
39657,3315342,8
39661,5155780,8
39673,1293847,7
39673,3315342,9
39673,4425200,9
39673,5442430,8
39686,3315342,9
39686,5052448,8
39721,5052448,6
39734,4425200,9
39734,4630562,8
39748,3896198,9
39752,2568862,8
39752,5052448,9
39790,2771200,8
39790,3315342,9
39790,3731562,7
39790,3874544,7
39790,5052448,9
39812,3315342,10
39840,2763304,7
39840,3315342,8
39863,1219827,1
39873,3405236,10
39935,1691916,8
39935,1753383,1
39935,2771200,6
39935,3315342,6
39935,3731562,7
39935,4465564,8
39940,4425200,7
39951,5052448,9
39951,5442430,8
39957,1293847,6
39957,3315342,8
39957,3874544,6
39957,4287320,8
39957,4425200,6
39957,5052448,8
40050,3315342,10
40050,3717490,7
40050,4425200,8
40125,5442430,5
40136,3315342,10
40136,3405236,7
40136,4630562,7
40136,4849438,9
40151,1691916,10
40151,3717490,6
40151,4425200,10
40176,2398241,5
40176,3874544,7
40176,5442430,8
40191,2763304,8
40191,3315342,8
40191,3731562,8
40228,3731562,6
40228,5442430,7
40236,1730768,7
40236,3874544,6
40324,3405236,10
40358,1219827,9
40358,3896198,10
40382,2763304,8
40387,1293847,2
40396,3315342,9
40402,3315342,9
40402,3896198,9
40402,4425200,8
40418,498381,3
40418,1219827,7
40418,3717490,8
40418,4425200,7
40493,3315342,9
40543,5442430,6
40556,2771200,4
40556,3315342,6
40565,3315342,7
40565,4425200,1
40620,5442430,8
40676,3315342,9
40676,4425200,9
40676,5052448,8
40676,5710514,7
40683,3315342,10
40703,5155780,5
40733,3315342,9
40743,498381,7
40743,2771200,6
40743,3315342,9
40743,3731562,8
40743,5052448,8
40743,5442430,7
40778,3896198,8
40778,5052448,9
40878,4425200,10
40887,3315342,10
40934,2763304,7
40945,4481414,7
40964,3315342,10
40969,4630562,7
40969,5052448,8
40979,1219827,6
40979,3315342,10
40983,2568862,8
40983,3315342,10
40983,3731562,8
40983,3874544,8
40983,3896198,10
40983,4116284,9
40983,5052448,10
41038,2771200,8
41038,3315342,9
41038,3731562,8
41038,3874544,6
41038,4425200,9
41073,1293847,7
41080,2763304,8
41080,3315342,7
41080,4425200,9
41110,2763304,8
41110,3896198,8
41110,4630562,8
41125,3315342,8
41129,1219827,5
41129,2072233,6
41129,2568862,7
41129,2771200,6
41129,3315342,9
41129,3405236,6
41129,3462710,5
41129,3731562,7
41129,3896198,8
41129,4425200,5
41129,4630562,5
41129,5052448,7
41129,5442430,7
41132,3315342,9
41132,3717490,6
41132,5442430,7
41140,2771200,10
41165,3315342,9
41176,493405,10
41180,2771200,9
41180,3896198,9
41180,4630562,8
41180,5442430,8
41208,2771200,10
41236,3315342,10
41240,3315342,9
41240,5052448,5
41261,1293847,8
41270,2771200,10
41270,3315342,8
41278,3717490,7
41297,5607714,10
41302,3874544,10
41302,5052448,6
41328,3315342,8
41332,2763304,8
41332,3315342,9
41332,4116284,8
41346,1293847,2
41346,3401882,6
41346,5052448,8
41347,3717490,5
41347,5052448,3
41347,5442430,5
41358,1219827,10
41358,3315342,8
41358,3874544,7
41358,4116284,10
41358,5442430,9
41359,5710514,6
41442,3315342,5
41450,3315342,9
41456,498381,7
41456,5052448,8
41467,4630562,8
41471,4425200,8
41476,4425200,8
41485,3315342,10
41485,3731562,8
41485,4116284,9
41485,4425200,9
41485,4630562,8
41485,5052448,8
41510,1293847,10
41512,1219827,5
41512,3315342,9
41516,3315342,10
41574,4630562,9
41603,2771200,6
41603,3171832,8
41603,3315342,8
41603,3896198,9
41603,5442430,9
41639,3315342,8
41639,3731562,7
41650,1753383,10
41662,3315342,9
41662,4116284,9
41662,5052448,8
41670,1293847,8
41670,4630562,9
41670,5442430,9
41698,3315342,9
41698,3731562,8
41698,3874544,7
41698,4630562,9
41735,3315342,8
41735,3731562,5
41735,5052448,9
41735,5442430,5
41745,3315342,8
41750,4630562,10
41782,4630562,7
41793,2763304,9
41797,2072233,8
41797,3462710,5
41797,4425200,6
41797,4630562,5
41797,5052448,3
41797,5442430,5
41805,3315342,10
41805,4116284,10
41805,4425200,7
41805,4630562,3
41811,4630562,9
41874,2771200,5
41882,1219827,7
41882,3315342,9
41882,4116284,7
41924,5052448,2
41924,5442430,7
41938,1293847,6
41938,2568862,7
41938,2771200,8
41938,3315342,8
41938,4630562,6
41938,4849438,9
41943,3315342,9
41954,3315342,10
41954,3896198,9
41954,4425200,8
41998,2763304,8
42027,1219827,3
42054,3731562,8
42093,2771200,7
42112,4630562,7
42113,1219827,7
42129,2568862,8
42144,3315342,10
42157,3315342,7
42180,5607714,6
42201,498381,3
42201,2771200,8
42201,3315342,9
42201,3717490,5
42201,3731562,8
42201,3874544,7
42201,3896198,7
42201,3922818,6
42201,4116284,8
42201,4425200,7
42201,4630562,7
42201,5442430,7
42211,2771200,8
42211,3315342,9
42223,3315342,9
42223,5442430,8
42295,3315342,8
42306,3315342,9
42319,3315342,10
42322,3315342,9
42322,3731562,5
42322,4425200,9
42322,5052448,7
42322,5442430,8
42372,2763304,8
42372,3315342,8
42372,3896198,6
42372,4116284,8
42430,1219827,6
42437,3315342,10
42437,3922818,9
42440,3315342,8
42440,4425200,8
42477,1219827,9
42477,3315342,8
42477,3717490,7
42477,3731562,7
42477,3896198,8
42477,5442430,9
42497,1293847,5
42497,3315342,8
42497,3731562,8
42497,3896198,9
42497,4116284,8
42497,4465564,2
42516,3922818,7
42563,3315342,9
42563,4630562,6
42631,5442430,8
42632,5442430,6
42661,3731562,10
42662,2771200,10
42748,3315342,8
42756,3315342,4
42791,2771200,7
42791,4630562,8
42803,1219827,9
42804,5052448,8
42843,3315342,9
42862,2568862,7
42862,5052448,8
42884,2763304,9
42901,3315342,8
42925,5442430,9
42937,498381,5
42937,2771200,8
42937,3315342,8
42937,3401882,7
42937,3717490,7
42937,3731562,7
42937,3874544,7
42937,4116284,8
42937,4425200,7
42937,4630562,7
42937,5052448,10
42940,2771200,9
42941,2568862,5
42942,3315342,9
43086,2771200,9
43086,3315342,9
43086,3401882,7
43086,3731562,7
43086,5052448,10
43093,5052448,5
43122,3315342,8
43132,3896198,9
43171,2072233,8
43221,498381,5
43221,1293847,4
43221,2568862,6
43221,3315342,9
43221,3405236,8
43221,3874544,6
43221,4116284,8
43221,4425200,7
43221,4630562,5
43221,5052448,8
43221,5442430,7
43229,1219827,5
43229,2568862,7
43229,2771200,6
43229,3315342,9
43229,3462710,1
43229,3717490,2
43229,3731562,8
43229,3896198,5
43229,4116284,10
43229,4630562,6
43229,5052448,9
43229,5155780,8
43229,5442430,7
43254,5052448,7
43264,1753383,10
43264,3315342,8
43264,3731562,8
43264,4481414,9
43264,4630562,8
43264,5442430,7
43278,3171832,5
43278,3315342,10
43312,3315342,9
43328,3315342,10
43328,3731562,8
43374,3731562,7
43374,4630562,8
43420,2763304,8
43420,4425200,6
43437,1219827,8
43437,5442430,7
43444,2771200,6
43451,3315342,9
43502,2771200,8
43514,3315342,8
43514,4425200,1
43559,2072233,8
43564,3896198,4
43564,4630562,8
43573,1293847,6
43573,2072233,7
43573,4425200,8
43604,2771200,9
43604,3315342,8
43604,3731562,6
43604,5052448,7
43605,4630562,10
43621,3315342,7
43647,3315342,9
43661,5442430,7
43672,4116284,9
43672,4425200,8
43697,2771200,6
43697,3315342,8
43705,3315342,8
43705,3731562,4
43705,4425200,7
43744,4217392,1
43752,3315342,9
43752,3731562,7
43752,4630562,10
43752,4849438,10
43771,2771200,10
43805,3731562,2
43806,3315342,5
43816,5052448,8
43823,3896198,9
43850,1753383,1
43880,2072233,4
43880,2568862,6
43880,3315342,8
43880,3731562,7
43880,4287320,1
43880,4425200,9
43880,4630562,7
43919,3315342,10
43963,498381,6
43963,3315342,9
43963,3731562,7
43963,3874544,7
43963,3896198,9
43963,4116284,8
43963,4465564,5
43976,3315342,10
44006,4425200,8
44006,4630562,9
44008,1219827,6
44008,3717490,5
44008,4630562,9
44022,3405236,6
44022,4849438,10
44022,5982852,6
44030,3315342,10
44030,5710514,8
44034,4425200,10
44034,5052448,10
44044,2763304,9
44056,1219827,7
44056,2763304,8
44056,3315342,7
44056,4425200,8
44074,3315342,9
44111,498381,5
44111,2072233,4
44111,2763304,7
44111,2771200,6
44111,3315342,8
44111,3731562,7
44111,4116284,8
44111,4581576,5
44111,5052448,8
44111,5710514,6
44112,4630562,7
44117,1219827,7
44120,1293847,3
44120,2568862,7
44120,2771200,8
44120,3315342,9
44121,1219827,7
44121,1293847,5
44121,2771200,7
44121,3315342,7
44121,3731562,7
44121,3874544,6
44121,4630562,8
44121,5442430,7
44135,3315342,9
44135,5052448,8
44144,2763304,8
44144,3874544,7
44144,3896198,9
44144,4116284,6
44144,5442430,7
44194,3171832,7
44194,3731562,7
44194,3922818,7
44194,5460276,8
44194,5982852,8
44206,5442430,9
44226,498381,1
44231,4425200,10
44254,2771200,8
44254,3315342,9
44254,5052448,9
44262,1293847,4
44342,4116284,7
44353,2763304,9
44353,4116284,10
44393,3315342,10
44408,1219827,5
44408,2771200,8
44408,3717490,7
44408,3731562,7
44408,4116284,7
44408,4465564,4
44408,5442430,8
44466,4116284,9
44499,1219827,8
44499,3731562,8
44543,1219827,6
44543,2771200,7
44543,4116284,7
44543,4630562,8
44543,5442430,8
44596,2763304,8
44669,2763304,9
44670,3405236,8
44673,3315342,7
44707,3731562,9
44716,4630562,7
44734,3315342,9
44734,3731562,7
44741,2072233,5
44741,4425200,10
44747,3315342,9
44778,3315342,9
44778,5052448,9
44826,2771200,7
44856,3315342,8
44868,3874544,7
44902,3315342,9
44902,3717490,7
44902,4116284,8
44902,4425200,8
44905,5442430,8
44916,2771200,8
44916,3315342,8
44916,3731562,6
44916,4630562,8
44916,5442430,5
44916,5460276,7
44922,5052448,10
44940,3171832,10
44956,3315342,9
45019,2771200,6
45019,3315342,9
45071,5052448,8
45095,2771200,7
45095,3922818,8
45142,3731562,10
45201,3171832,8
45201,3401882,7
45201,4425200,10
45202,3315342,10
45240,3315342,10
45240,3401882,8
45240,3717490,7
45240,4425200,8
45240,4630562,8
45263,3315342,4
45263,4425200,10
45329,5052448,8
45337,3315342,8
45337,4425200,6
45339,3315342,7
45339,5710514,8
45369,1293847,7
45373,3315342,8
45373,3731562,8
45373,4287320,8
45373,5052448,9
45383,3315342,9
45388,3315342,9
45388,4425200,9
45388,4630562,8
45388,5052448,10
45390,5460276,10
45396,1753383,8
45396,2771200,8
45396,3462710,6
45396,4630562,7
45429,2771200,9
45452,3315342,9
45452,4116284,8
45477,1753383,5
45477,2771200,7
45477,4116284,6
45500,4425200,10
45514,3315342,8
45514,3896198,7
45514,4630562,4
45532,2771200,7
45532,3315342,9
45573,5710514,7
45583,2771200,6
45584,3405236,10
45600,1219827,7
45600,2763304,5
45600,3315342,8
45600,3731562,5
45600,3896198,5
45600,5052448,7
45640,4630562,8
45659,4425200,8
45659,5052448,7
45665,4630562,8
45739,498381,5
45739,1219827,7
45739,2771200,5
45739,3315342,8
45739,3731562,7
45739,3896198,7
45739,5442430,7
45768,3315342,8
45789,1219827,5
45789,2771200,1
45830,2763304,8
45830,4116284,9
45830,4465564,1
45838,1219827,4
45838,3315342,9
45838,3731562,5
45914,1219827,8
45914,1730768,8
45914,4425200,8
45920,5052448,9
45941,4630562,6
45941,5442430,2
46009,3315342,10
46069,3731562,8
46069,5052448,10
46082,3896198,9
46139,3315342,8
46139,3896198,9
46183,4425200,7
46247,3731562,6
46253,5442430,6
46278,5052448,7
46289,3171832,7
46305,3717490,7
46315,3315342,8
46327,3315342,8
46327,5052448,8
46417,2771200,8
46417,3315342,10
46417,3731562,8
46417,4116284,8
46417,5442430,8
46443,4465564,3
46486,1293847,3
46486,2763304,8
46486,3315342,7
46486,3731562,7
46486,4116284,7
46486,5052448,8
46498,5155780,8
46505,3315342,9
46505,3731562,6
46505,4425200,10
46505,4630562,9
46505,5052448,8
46581,1293847,4
46581,3315342,7
46581,3405236,8
46581,3731562,8
46581,5982852,8
46701,3315342,10
46717,3315342,8
46717,5442430,7
46735,2763304,10
46735,4116284,8
46796,2771200,8
46796,4116284,8
46891,2763304,4
46893,3315342,5
46893,4425200,9
46916,4465564,2
46994,1293847,2
47028,1293847,6
47028,4425200,8
47028,4630562,8
47057,4116284,6
47082,5052448,7
47099,4425200,6
47099,5052448,8
47116,5052448,10
47127,5052448,8
47127,5442430,8
47141,493405,3
47141,1219827,6
47141,2568862,6
47141,2763304,6
47141,2771200,8
47141,3315342,9
47141,3731562,5
47141,4116284,9
47141,4425200,8
47141,5052448,9
47141,5442430,7
47155,2771200,9
47162,3315342,9
47168,3315342,7
47172,4425200,5
47183,1219827,6
47183,2771200,7
47183,3731562,6
47183,5052448,8
47206,3405236,9
47208,2771200,7
47210,3315342,6
47210,3731562,6
47210,4465564,1
47226,3731562,5
47264,3315342,7
47264,4630562,7
47274,3731562,4
47297,498381,4
47297,1219827,5
47297,2568862,7
47297,2763304,7
47297,2771200,9
47297,3731562,6
47297,3874544,7
47297,4030600,6
47297,4630562,8
47297,5052448,8
47306,3896198,9
47323,1219827,7
47323,2072233,4
47323,4630562,5
47347,3315342,10
47347,3731562,7
47361,3315342,9
47365,3315342,8
47370,3315342,7
47370,4425200,7
47370,5155780,6
47390,1293847,6
47390,3401882,5
47413,3315342,9
47413,3717490,8
47413,3731562,7
47413,5052448,8
47416,3405236,7
47446,3315342,8
47446,3731562,8
47446,3922818,10
47473,2771200,8
47473,3315342,8
47517,3731562,7
47531,3315342,8
47531,5442430,3
47539,2072233,6
47546,1219827,6
47546,3315342,9
47546,3717490,7
47546,3731562,5
47546,3896198,7
47546,4116284,9
47546,5710514,9
47599,3717490,5
47609,3315342,7
47609,4630562,7
47640,1219827,10
47645,3731562,8
47645,5052448,8
47651,3731562,7
47651,4425200,8
47651,4630562,7
47651,4849438,9
47651,5442430,6
47687,4630562,9
47694,1219827,7
47694,2763304,9
47694,3315342,9
47694,3896198,9
47700,2771200,9
47735,3315342,9
47740,3922818,6
47742,3315342,10
47742,3717490,6
47742,3874544,7
47742,4287320,5
47742,4630562,8
47762,3717490,8
47826,1293847,4
47826,2771200,9
47826,3315342,10
47826,3731562,5
47826,3874544,7
47826,4116284,7
47826,5442430,6
47838,498381,2
47856,4581576,1
47859,3315342,10
47862,4425200,8
47892,1219827,4
47904,3315342,9
47905,3315342,10
47957,2771200,7
47957,3731562,6
47957,3896198,8
47957,4425200,9
47957,4630562,7
47964,3315342,8
47992,1219827,3
47992,3315342,8
47992,3731562,7
47992,5442430,7
48052,3171832,8
48052,5710514,7
48059,3315342,9
48089,3315342,8
48089,4630562,7
48090,2763304,8
48111,3315342,8
48111,3731562,5
48111,4116284,7
48117,498381,6
48117,3315342,9
48117,4030600,3
48117,4465564,3
48117,4581576,8
48142,3315342,8
48142,4425200,8
48155,4465564,1
48186,2568862,6
48186,3315342,7
48203,3315342,6
48212,3717490,8
48223,3315342,9
48223,4425200,9
48274,1219827,8
48274,3896198,9
48285,3315342,9
48301,4630562,6
48324,1293847,8
48345,5442430,9
48470,3315342,7
48483,2771200,9
48484,1219827,7
48484,1293847,5
48484,3315342,8
48484,3717490,8
48484,3731562,7
48484,4116284,10
48484,4425200,9
48484,4630562,9
48484,5052448,8
48497,3731562,8
48514,3315342,10
48514,3717490,8
48578,3731562,9
48578,5442430,8
48608,1219827,6
48616,1219827,7
48623,3315342,8
48623,3731562,6
48627,5442430,3
48634,1219827,7
48634,1293847,5
48634,2763304,8
48634,3315342,9
48634,3717490,7
48634,3731562,7
48634,3896198,8
48634,4116284,8
48634,4425200,7
48634,4630562,6
48637,3171832,6
48637,4116284,10
48637,4425200,9
48638,3731562,9
48668,5607714,8
48684,1219827,5
48693,3315342,9
48711,1293847,8
48759,4425200,10
48764,1293847,6
48794,1219827,5
48794,3315342,5
48794,4425200,8
48796,4481414,10
48807,3171832,7
48839,4630562,8
48848,5052448,8
48856,3315342,10
48876,3731562,9
48876,4630562,8
48876,5052448,7
48877,2763304,8
48898,3315342,6
48900,1293847,3
48962,3731562,5
48964,2072233,5
48964,2582576,5
48964,4465564,5
48964,4581576,6
